/* XPM */
static char * title_2_active_xpm[] = {
"2 26 3 1",
" 	c None",
".	c #484848",
"+	c #1e1e1e",
"..",
"++",
"++",
"++",
"++",
"++",
"++",
"++",
"++",
"++",
"++",
"++",
"++",
"++",
"++",
"++",
"++",
"++",
"++",
"++",
"++",
"++",
"++",
"++",
"++",
"++"};
